{
  "project_info": {
    "project_number": "12458299847",
    "firebase_url": "https://whatsapp-clone-8d23d.firebaseio.com",
    "project_id": "whatsapp-clone",
    "storage_bucket": "whatsapp-clone.appspot.com"
  },
  "client": [
    {
      "client_info": {
        "mobilesdk_app_id": "1:12458299847:android:096303e1976569a7",
        "android_client_info": {
          "package_name": "com.zybertron.zoechat"
        }
      },
      "oauth_client": [
        {
          "client_id": "12458299847-do2po3hbp28dfh8vtio6lvbd9s6qq09a.apps.googleusercontent.com",
          "client_type": 1,
          "android_info": {
            "package_name": "com.zybertron.zoechat",
            "certificate_hash": "3737973A482BFF23CCA31305927618EF9BA35E82"
          }
        },
        {
          "client_id": "12458299847-blk09giqne8q8tdogh1h40v4k2tpk49l.apps.googleusercontent.com",
          "client_type": 3
        }
      ],
      "api_key": [
        {
          "current_key": "AIzaSyAmTfoEYHPWmGtXOM47j8KJAeKlwEmONbc"
        }
      ],
      "services": {
        "analytics_service": {
          "status": 1
        },
        "appinvite_service": {
          "status": 2,
          "other_platform_oauth_client": [
            {
              "client_id": "12458299847-v86d18ulmkvb3pulirteiijarlho2k4t.apps.googleusercontent.com",
              "client_type": 2,
              "ios_info": {
                "bundle_id": "com.zybertron.zoechat"
              }
            },
            {
              "client_id": "12458299847-blk09giqne8q8tdogh1h40v4k2tpk49l.apps.googleusercontent.com",
              "client_type": 3
            }
          ]
        },
        "ads_service": {
          "status": 2
        }
      }
    }
  ],
  "configuration_version": "1"
}